=== Run information ===

Evaluator:    weka.attributeSelection.WrapperSubsetEval -B weka.classifiers.meta.AttributeSelectedClassifier -F 10 -T 0.05 -R 1 -E DEFAULT -- -E "weka.attributeSelection.CfsSubsetEval -P 1 -E 1" -S "weka.attributeSelection.BestFirst -D 1 -N 5" -W weka.classifiers.functions.SMO -- -C 1.0 -L 0.001 -P 1.0E-12 -N 0 -V -1 -W 1 -K "weka.classifiers.functions.supportVector.PolyKernel -E 1.0 -C 250007" -calibrator "weka.classifiers.functions.Logistic -R 1.0E-8 -M -1 -num-decimal-places 4"
Search:       weka.attributeSelection.BestFirst -D 1 -N 5
Relation:     final.data
Instances:    699
Attributes:   10
              thickness
              cellsize
              cellshape
              adhesion
              singleepith
              nuclei
              chromatin
              nucleoli
              mitosis
              class
Evaluation mode:    evaluate on all training data



=== Attribute Selection on all input data ===

Search Method:
	Best first.
	Start set: no attributes
	Search direction: forward
	Stale search after 5 node expansions
	Total number of subsets evaluated: 48
	Merit of best subset found:    0.971

Attribute Subset Evaluator (supervised, Class (nominal): 10 class):
	Wrapper Subset Evaluator
	Learning scheme: weka.classifiers.meta.AttributeSelectedClassifier
	Scheme options: -E weka.attributeSelection.CfsSubsetEval -P 1 -E 1 -S weka.attributeSelection.BestFirst -D 1 -N 5 -W weka.classifiers.functions.SMO -- -C 1.0 -L 0.001 -P 1.0E-12 -N 0 -V -1 -W 1 -K weka.classifiers.functions.supportVector.PolyKernel -E 1.0 -C 250007 -calibrator weka.classifiers.functions.Logistic -R 1.0E-8 -M -1 -num-decimal-places 4 
	Subset evaluation: classification accuracy
	Number of folds for accuracy estimation: 10

Selected attributes: 1,3,6,7,8,9 : 6
                     thickness
                     cellshape
                     nuclei
                     chromatin
                     nucleoli
                     mitosis

